2019-12-20T12:43:04.7535006+01:00  [FTL] Application startup exception (6c57a5ba)
System.ArgumentNullException: Path cannot be null. (Parameter 'path')
   at System.IO.FileStream..ctor(String path, FileMode mode, FileAccess access, FileShare share, Int32 bufferSize, FileOptions options)
   at System.IO.FileStream..ctor(String path, FileMode mode, FileAccess access, FileShare share, Int32 bufferSize)
   at System.IO.File.Create(String path)
   at Gfi_ConceptTest_CRUD1.Startup.Configure(IApplicationBuilder app, IWebHostEnvironment env, ILoggerFactory loggerFactory) in C:\Users\usuario\source\repos\Gfi_ConceptTest_CRUD1\Gfi_ConceptTest_CRUD1\Startup.cs:line 64
   at System.RuntimeMethodHandle.InvokeMethod(Object target, Object[] arguments, Signature sig, Boolean constructor, Boolean wrapExceptions)
   at System.Reflection.RuntimeMethodInfo.Invoke(Object obj, BindingFlags invokeAttr, Binder binder, Object[] parameters, CultureInfo culture)
   at Microsoft.AspNetCore.Hosting.ConfigureBuilder.Invoke(Object instance, IApplicationBuilder builder)
   at Microsoft.AspNetCore.Hosting.ConfigureBuilder.<>c__DisplayClass4_0.<Build>b__0(IApplicationBuilder builder)
   at Microsoft.AspNetCore.Hosting.GenericWebHostBuilder.<>c__DisplayClass13_0.<UseStartup>b__2(IApplicationBuilder app)
   at Microsoft.AspNetCore.Mvc.Filters.MiddlewareFilterBuilderStartupFilter.<>c__DisplayClass0_0.<Configure>g__MiddlewareFilterBuilder|0(IApplicationBuilder builder)
   at Microsoft.AspNetCore.HostFilteringStartupFilter.<>c__DisplayClass0_0.<Configure>b__0(IApplicationBuilder app)
   at Microsoft.AspNetCore.Hosting.GenericWebHostService.StartAsync(CancellationToken cancellationToken)
   at Microsoft.Extensions.Hosting.Internal.Host.StartAsync(CancellationToken cancellationToken)
   at Microsoft.Extensions.Hosting.HostingAbstractionsHostExtensions.RunAsync(IHost host, CancellationToken token)
2019-12-20T12:43:52.1505903+01:00  [FTL] Application startup exception (6c57a5ba)
System.ArgumentNullException: Path cannot be null. (Parameter 'path')
   at System.IO.FileStream..ctor(String path, FileMode mode, FileAccess access, FileShare share, Int32 bufferSize, FileOptions options)
   at System.IO.FileStream..ctor(String path, FileMode mode, FileAccess access, FileShare share, Int32 bufferSize)
   at System.IO.File.Create(String path)
   at Gfi_ConceptTest_CRUD1.Startup.Configure(IApplicationBuilder app, IWebHostEnvironment env, ILoggerFactory loggerFactory) in C:\Users\usuario\source\repos\Gfi_ConceptTest_CRUD1\Gfi_ConceptTest_CRUD1\Startup.cs:line 64
   at System.RuntimeMethodHandle.InvokeMethod(Object target, Object[] arguments, Signature sig, Boolean constructor, Boolean wrapExceptions)
   at System.Reflection.RuntimeMethodInfo.Invoke(Object obj, BindingFlags invokeAttr, Binder binder, Object[] parameters, CultureInfo culture)
   at Microsoft.AspNetCore.Hosting.ConfigureBuilder.Invoke(Object instance, IApplicationBuilder builder)
   at Microsoft.AspNetCore.Hosting.ConfigureBuilder.<>c__DisplayClass4_0.<Build>b__0(IApplicationBuilder builder)
   at Microsoft.AspNetCore.Hosting.GenericWebHostBuilder.<>c__DisplayClass13_0.<UseStartup>b__2(IApplicationBuilder app)
   at Microsoft.AspNetCore.Mvc.Filters.MiddlewareFilterBuilderStartupFilter.<>c__DisplayClass0_0.<Configure>g__MiddlewareFilterBuilder|0(IApplicationBuilder builder)
   at Microsoft.AspNetCore.HostFilteringStartupFilter.<>c__DisplayClass0_0.<Configure>b__0(IApplicationBuilder app)
   at Microsoft.AspNetCore.Hosting.GenericWebHostService.StartAsync(CancellationToken cancellationToken)
   at Microsoft.Extensions.Hosting.Internal.Host.StartAsync(CancellationToken cancellationToken)
   at Microsoft.Extensions.Hosting.HostingAbstractionsHostExtensions.RunAsync(IHost host, CancellationToken token)
2019-12-20T12:44:57.5441008+01:00  [FTL] Application startup exception (6c57a5ba)
System.ArgumentNullException: Path cannot be null. (Parameter 'path')
   at System.IO.FileStream..ctor(String path, FileMode mode, FileAccess access, FileShare share, Int32 bufferSize, FileOptions options)
   at System.IO.FileStream..ctor(String path, FileMode mode, FileAccess access, FileShare share, Int32 bufferSize)
   at System.IO.File.Create(String path)
   at Gfi_ConceptTest_CRUD1.Startup.Configure(IApplicationBuilder app, IWebHostEnvironment env, ILoggerFactory loggerFactory) in C:\Users\usuario\source\repos\Gfi_ConceptTest_CRUD1\Gfi_ConceptTest_CRUD1\Startup.cs:line 64
   at System.RuntimeMethodHandle.InvokeMethod(Object target, Object[] arguments, Signature sig, Boolean constructor, Boolean wrapExceptions)
   at System.Reflection.RuntimeMethodInfo.Invoke(Object obj, BindingFlags invokeAttr, Binder binder, Object[] parameters, CultureInfo culture)
   at Microsoft.AspNetCore.Hosting.ConfigureBuilder.Invoke(Object instance, IApplicationBuilder builder)
   at Microsoft.AspNetCore.Hosting.ConfigureBuilder.<>c__DisplayClass4_0.<Build>b__0(IApplicationBuilder builder)
   at Microsoft.AspNetCore.Hosting.GenericWebHostBuilder.<>c__DisplayClass13_0.<UseStartup>b__2(IApplicationBuilder app)
   at Microsoft.AspNetCore.Mvc.Filters.MiddlewareFilterBuilderStartupFilter.<>c__DisplayClass0_0.<Configure>g__MiddlewareFilterBuilder|0(IApplicationBuilder builder)
   at Microsoft.AspNetCore.HostFilteringStartupFilter.<>c__DisplayClass0_0.<Configure>b__0(IApplicationBuilder app)
   at Microsoft.AspNetCore.Hosting.GenericWebHostService.StartAsync(CancellationToken cancellationToken)
   at Microsoft.Extensions.Hosting.Internal.Host.StartAsync(CancellationToken cancellationToken)
   at Microsoft.Extensions.Hosting.HostingAbstractionsHostExtensions.RunAsync(IHost host, CancellationToken token)
2019-12-20T12:47:14.2992014+01:00  [FTL] Application startup exception (6c57a5ba)
System.ArgumentNullException: Path cannot be null. (Parameter 'path')
   at System.IO.FileStream..ctor(String path, FileMode mode, FileAccess access, FileShare share, Int32 bufferSize, FileOptions options)
   at System.IO.FileStream..ctor(String path, FileMode mode, FileAccess access, FileShare share, Int32 bufferSize)
   at System.IO.File.Create(String path)
   at Gfi_ConceptTest_CRUD1.Startup.Configure(IApplicationBuilder app, IWebHostEnvironment env, ILoggerFactory loggerFactory) in C:\Users\usuario\source\repos\Gfi_ConceptTest_CRUD1\Gfi_ConceptTest_CRUD1\Startup.cs:line 64
   at System.RuntimeMethodHandle.InvokeMethod(Object target, Object[] arguments, Signature sig, Boolean constructor, Boolean wrapExceptions)
   at System.Reflection.RuntimeMethodInfo.Invoke(Object obj, BindingFlags invokeAttr, Binder binder, Object[] parameters, CultureInfo culture)
   at Microsoft.AspNetCore.Hosting.ConfigureBuilder.Invoke(Object instance, IApplicationBuilder builder)
   at Microsoft.AspNetCore.Hosting.ConfigureBuilder.<>c__DisplayClass4_0.<Build>b__0(IApplicationBuilder builder)
   at Microsoft.AspNetCore.Hosting.GenericWebHostBuilder.<>c__DisplayClass13_0.<UseStartup>b__2(IApplicationBuilder app)
   at Microsoft.AspNetCore.Mvc.Filters.MiddlewareFilterBuilderStartupFilter.<>c__DisplayClass0_0.<Configure>g__MiddlewareFilterBuilder|0(IApplicationBuilder builder)
   at Microsoft.AspNetCore.HostFilteringStartupFilter.<>c__DisplayClass0_0.<Configure>b__0(IApplicationBuilder app)
   at Microsoft.AspNetCore.Hosting.GenericWebHostService.StartAsync(CancellationToken cancellationToken)
   at Microsoft.Extensions.Hosting.Internal.Host.StartAsync(CancellationToken cancellationToken)
   at Microsoft.Extensions.Hosting.HostingAbstractionsHostExtensions.RunAsync(IHost host, CancellationToken token)
2019-12-20T12:48:09.0742004+01:00  [INF] Now listening on: "http://localhost:5000" (d826f4b8)
2019-12-20T12:48:09.0777526+01:00  [INF] Now listening on: "https://localhost:5001" (d826f4b8)
2019-12-20T12:48:09.0779389+01:00  [INF] Application started. Press Ctrl+C to shut down. (dcaefe54)
2019-12-20T12:48:09.0779824+01:00  [INF] Hosting environment: "Production" (c3307c92)
2019-12-20T12:48:09.0780031+01:00  [INF] Content root path: "c:\Users\usuario\source\repos\gfi_concepttest_crud1" (b5d60022)
2019-12-20T12:48:22.6658625+01:00  [INF] Application is shutting down... (90f52c38)
2019-12-20T12:49:25.2491936+01:00  [FTL] Application startup exception (6c57a5ba)
System.ArgumentNullException: Path cannot be null. (Parameter 'path')
   at System.IO.FileStream..ctor(String path, FileMode mode, FileAccess access, FileShare share, Int32 bufferSize, FileOptions options)
   at System.IO.FileStream..ctor(String path, FileMode mode, FileAccess access, FileShare share, Int32 bufferSize)
   at System.IO.File.Create(String path)
   at Gfi_ConceptTest_CRUD1.Startup.Configure(IApplicationBuilder app, IWebHostEnvironment env, ILoggerFactory loggerFactory) in C:\Users\usuario\source\repos\Gfi_ConceptTest_CRUD1\Gfi_ConceptTest_CRUD1\Startup.cs:line 64
   at System.RuntimeMethodHandle.InvokeMethod(Object target, Object[] arguments, Signature sig, Boolean constructor, Boolean wrapExceptions)
   at System.Reflection.RuntimeMethodInfo.Invoke(Object obj, BindingFlags invokeAttr, Binder binder, Object[] parameters, CultureInfo culture)
   at Microsoft.AspNetCore.Hosting.ConfigureBuilder.Invoke(Object instance, IApplicationBuilder builder)
   at Microsoft.AspNetCore.Hosting.ConfigureBuilder.<>c__DisplayClass4_0.<Build>b__0(IApplicationBuilder builder)
   at Microsoft.AspNetCore.Hosting.GenericWebHostBuilder.<>c__DisplayClass13_0.<UseStartup>b__2(IApplicationBuilder app)
   at Microsoft.AspNetCore.Mvc.Filters.MiddlewareFilterBuilderStartupFilter.<>c__DisplayClass0_0.<Configure>g__MiddlewareFilterBuilder|0(IApplicationBuilder builder)
   at Microsoft.AspNetCore.HostFilteringStartupFilter.<>c__DisplayClass0_0.<Configure>b__0(IApplicationBuilder app)
   at Microsoft.AspNetCore.Hosting.GenericWebHostService.StartAsync(CancellationToken cancellationToken)
   at Microsoft.Extensions.Hosting.Internal.Host.StartAsync(CancellationToken cancellationToken)
   at Microsoft.Extensions.Hosting.HostingAbstractionsHostExtensions.RunAsync(IHost host, CancellationToken token)
2019-12-20T12:50:25.6547909+01:00  [INF] Now listening on: "http://localhost:5000" (d826f4b8)
2019-12-20T12:50:25.6583497+01:00  [INF] Now listening on: "https://localhost:5001" (d826f4b8)
2019-12-20T12:50:25.6584932+01:00  [INF] Application started. Press Ctrl+C to shut down. (dcaefe54)
2019-12-20T12:50:25.6585283+01:00  [INF] Hosting environment: "Production" (c3307c92)
2019-12-20T12:50:25.6585480+01:00  [INF] Content root path: "c:\Users\usuario\source\repos\gfi_concepttest_crud1" (b5d60022)
2019-12-20T12:50:36.6972572+01:00  [INF] Application is shutting down... (90f52c38)
2019-12-20T12:51:08.0573827+01:00  [INF] Now listening on: "http://localhost:5000" (d826f4b8)
2019-12-20T12:51:08.0608839+01:00  [INF] Now listening on: "https://localhost:5001" (d826f4b8)
2019-12-20T12:51:08.0610294+01:00  [INF] Application started. Press Ctrl+C to shut down. (dcaefe54)
2019-12-20T12:51:08.0610714+01:00  [INF] Hosting environment: "Production" (c3307c92)
2019-12-20T12:51:08.0610996+01:00  [INF] Content root path: "c:\Users\usuario\source\repos\gfi_concepttest_crud1" (b5d60022)
2019-12-20T12:51:11.3079506+01:00  [INF] Application is shutting down... (90f52c38)
2019-12-20T12:55:11.0569858+01:00  [INF] Now listening on: "http://localhost:5000" (d826f4b8)
2019-12-20T12:55:11.0606142+01:00  [INF] Now listening on: "https://localhost:5001" (d826f4b8)
2019-12-20T12:55:11.0607660+01:00  [INF] Application started. Press Ctrl+C to shut down. (dcaefe54)
2019-12-20T12:55:11.0607980+01:00  [INF] Hosting environment: "Production" (c3307c92)
2019-12-20T12:55:11.0608164+01:00  [INF] Content root path: "c:\Users\usuario\source\repos\gfi_concepttest_crud1" (b5d60022)
2019-12-20T12:56:41.5122699+01:00  [INF] Application is shutting down... (90f52c38)
2019-12-20T12:56:47.9692948+01:00  [INF] Now listening on: "http://localhost:5000" (d826f4b8)
2019-12-20T12:56:47.9729117+01:00  [INF] Now listening on: "https://localhost:5001" (d826f4b8)
2019-12-20T12:56:47.9730563+01:00  [INF] Application started. Press Ctrl+C to shut down. (dcaefe54)
2019-12-20T12:56:47.9730787+01:00  [INF] Hosting environment: "Production" (c3307c92)
2019-12-20T12:56:47.9731129+01:00  [INF] Content root path: "c:\Users\usuario\source\repos\gfi_concepttest_crud1" (b5d60022)
2019-12-20T12:56:50.1397467+01:00  [INF] Application is shutting down... (90f52c38)
2019-12-20T12:56:56.3631380+01:00  [INF] Now listening on: "http://localhost:5000" (d826f4b8)
2019-12-20T12:56:56.3666295+01:00  [INF] Now listening on: "https://localhost:5001" (d826f4b8)
2019-12-20T12:56:56.3667950+01:00  [INF] Application started. Press Ctrl+C to shut down. (dcaefe54)
2019-12-20T12:56:56.3668291+01:00  [INF] Hosting environment: "Production" (c3307c92)
2019-12-20T12:56:56.3668488+01:00  [INF] Content root path: "c:\Users\usuario\source\repos\gfi_concepttest_crud1" (b5d60022)
2019-12-20T12:56:57.9951463+01:00  [INF] Application is shutting down... (90f52c38)
2019-12-20T12:57:20.9646825+01:00  [INF] Now listening on: "http://localhost:5000" (d826f4b8)
2019-12-20T12:57:20.9681170+01:00  [INF] Now listening on: "https://localhost:5001" (d826f4b8)
2019-12-20T12:57:20.9682560+01:00  [INF] Application started. Press Ctrl+C to shut down. (dcaefe54)
2019-12-20T12:57:20.9682875+01:00  [INF] Hosting environment: "Production" (c3307c92)
2019-12-20T12:57:20.9683053+01:00  [INF] Content root path: "c:\Users\usuario\source\repos\gfi_concepttest_crud1" (b5d60022)
2019-12-20T13:02:55.3794661+01:00  [INF] Application is shutting down... (90f52c38)
2019-12-20T13:03:31.6640239+01:00  [INF] Now listening on: "http://localhost:5000" (d826f4b8)
2019-12-20T13:03:31.6674759+01:00  [INF] Now listening on: "https://localhost:5001" (d826f4b8)
2019-12-20T13:03:31.6676455+01:00  [INF] Application started. Press Ctrl+C to shut down. (dcaefe54)
2019-12-20T13:03:31.6676683+01:00  [INF] Hosting environment: "Production" (c3307c92)
2019-12-20T13:03:31.6676982+01:00  [INF] Content root path: "c:\Users\usuario\source\repos\gfi_concepttest_crud1" (b5d60022)
2019-12-20T13:03:40.8531721+01:00  [INF] Application is shutting down... (90f52c38)
2019-12-20T13:04:57.4379939+01:00  [INF] Now listening on: "http://localhost:5000" (d826f4b8)
2019-12-20T13:04:57.4414899+01:00  [INF] Now listening on: "https://localhost:5001" (d826f4b8)
2019-12-20T13:04:57.4416384+01:00  [INF] Application started. Press Ctrl+C to shut down. (dcaefe54)
2019-12-20T13:04:57.4416705+01:00  [INF] Hosting environment: "Production" (c3307c92)
2019-12-20T13:04:57.4416895+01:00  [INF] Content root path: "c:\Users\usuario\source\repos\gfi_concepttest_crud1" (b5d60022)
2019-12-20T13:05:06.8678089+01:00  [INF] Application is shutting down... (90f52c38)
2019-12-20T13:07:40.1112338+01:00  [INF] Now listening on: "http://localhost:5000" (d826f4b8)
2019-12-20T13:07:40.1147172+01:00  [INF] Now listening on: "https://localhost:5001" (d826f4b8)
2019-12-20T13:07:40.1148610+01:00  [INF] Application started. Press Ctrl+C to shut down. (dcaefe54)
2019-12-20T13:07:40.1148966+01:00  [INF] Hosting environment: "Production" (c3307c92)
2019-12-20T13:07:40.1149151+01:00  [INF] Content root path: "c:\Users\usuario\source\repos\gfi_concepttest_crud1" (b5d60022)
2019-12-20T13:07:43.5181504+01:00  [INF] Application is shutting down... (90f52c38)
2019-12-20T13:08:03.5645178+01:00  [INF] Now listening on: "http://localhost:5000" (d826f4b8)
2019-12-20T13:08:03.5679716+01:00  [INF] Now listening on: "https://localhost:5001" (d826f4b8)
2019-12-20T13:08:03.5681137+01:00  [INF] Application started. Press Ctrl+C to shut down. (dcaefe54)
2019-12-20T13:08:03.5681373+01:00  [INF] Hosting environment: "Production" (c3307c92)
2019-12-20T13:08:03.5681616+01:00  [INF] Content root path: "c:\Users\usuario\source\repos\gfi_concepttest_crud1" (b5d60022)
2019-12-20T13:08:06.4661885+01:00  [INF] Application is shutting down... (90f52c38)
2019-12-20T13:08:15.2148870+01:00  [INF] Now listening on: "http://localhost:5000" (d826f4b8)
2019-12-20T13:08:15.2183964+01:00  [INF] Now listening on: "https://localhost:5001" (d826f4b8)
2019-12-20T13:08:15.2185448+01:00  [INF] Application started. Press Ctrl+C to shut down. (dcaefe54)
2019-12-20T13:08:15.2185682+01:00  [INF] Hosting environment: "Production" (c3307c92)
2019-12-20T13:08:15.2185987+01:00  [INF] Content root path: "c:\Users\usuario\source\repos\gfi_concepttest_crud1" (b5d60022)
2019-12-20T13:08:17.3940319+01:00  [INF] Application is shutting down... (90f52c38)
2019-12-20T13:08:30.7542992+01:00  [INF] Now listening on: "http://localhost:5000" (d826f4b8)
2019-12-20T13:08:30.7578326+01:00  [INF] Now listening on: "https://localhost:5001" (d826f4b8)
2019-12-20T13:08:30.7579853+01:00  [INF] Application started. Press Ctrl+C to shut down. (dcaefe54)
2019-12-20T13:08:30.7580150+01:00  [INF] Hosting environment: "Production" (c3307c92)
2019-12-20T13:08:30.7580320+01:00  [INF] Content root path: "c:\Users\usuario\source\repos\gfi_concepttest_crud1" (b5d60022)
2019-12-20T13:08:33.6366759+01:00  [INF] Application is shutting down... (90f52c38)
2019-12-20T13:09:29.4305039+01:00  [INF] Now listening on: "http://localhost:5000" (d826f4b8)
2019-12-20T13:09:29.4340838+01:00  [INF] Now listening on: "https://localhost:5001" (d826f4b8)
2019-12-20T13:09:29.4342334+01:00  [INF] Application started. Press Ctrl+C to shut down. (dcaefe54)
2019-12-20T13:09:29.4342630+01:00  [INF] Hosting environment: "Production" (c3307c92)
2019-12-20T13:09:29.4342815+01:00  [INF] Content root path: "c:\Users\usuario\source\repos\gfi_concepttest_crud1" (b5d60022)
2019-12-20T13:11:05.0849595+01:00  [INF] Application is shutting down... (90f52c38)
2019-12-20T13:11:19.2026431+01:00  [INF] Now listening on: "http://localhost:5000" (d826f4b8)
2019-12-20T13:11:19.2062174+01:00  [INF] Now listening on: "https://localhost:5001" (d826f4b8)
2019-12-20T13:11:19.2063662+01:00  [INF] Application started. Press Ctrl+C to shut down. (dcaefe54)
2019-12-20T13:11:19.2063911+01:00  [INF] Hosting environment: "Production" (c3307c92)
2019-12-20T13:11:19.2064269+01:00  [INF] Content root path: "c:\Users\usuario\source\repos\gfi_concepttest_crud1" (b5d60022)
2019-12-20T13:11:22.2743924+01:00  [INF] Application is shutting down... (90f52c38)
2019-12-20T13:11:56.5282199+01:00  [INF] Now listening on: "http://localhost:5000" (d826f4b8)
2019-12-20T13:11:56.5318064+01:00  [INF] Now listening on: "https://localhost:5001" (d826f4b8)
2019-12-20T13:11:56.5319466+01:00  [INF] Application started. Press Ctrl+C to shut down. (dcaefe54)
2019-12-20T13:11:56.5319692+01:00  [INF] Hosting environment: "Production" (c3307c92)
2019-12-20T13:11:56.5319939+01:00  [INF] Content root path: "c:\Users\usuario\source\repos\gfi_concepttest_crud1" (b5d60022)
2019-12-20T13:12:01.6776580+01:00  [INF] Application is shutting down... (90f52c38)
2019-12-20T13:16:47.7163615+01:00  [INF] Now listening on: "http://localhost:5000" (d826f4b8)
2019-12-20T13:16:47.7200033+01:00  [INF] Now listening on: "https://localhost:5001" (d826f4b8)
2019-12-20T13:16:47.7201488+01:00  [INF] Application started. Press Ctrl+C to shut down. (dcaefe54)
2019-12-20T13:16:47.7201851+01:00  [INF] Hosting environment: "Production" (c3307c92)
2019-12-20T13:16:47.7202018+01:00  [INF] Content root path: "c:\Users\usuario\source\repos\gfi_concepttest_crud1" (b5d60022)
2019-12-20T13:16:49.6280336+01:00  [INF] Application is shutting down... (90f52c38)
2019-12-20T13:17:31.0334443+01:00  [INF] Now listening on: "http://localhost:5000" (d826f4b8)
2019-12-20T13:17:31.0370015+01:00  [INF] Now listening on: "https://localhost:5001" (d826f4b8)
2019-12-20T13:17:31.0371794+01:00  [INF] Application started. Press Ctrl+C to shut down. (dcaefe54)
2019-12-20T13:17:31.0372178+01:00  [INF] Hosting environment: "Production" (c3307c92)
2019-12-20T13:17:31.0372558+01:00  [INF] Content root path: "c:\Users\usuario\source\repos\gfi_concepttest_crud1" (b5d60022)
2019-12-20T13:17:32.5289855+01:00  [INF] Application is shutting down... (90f52c38)
2019-12-20T13:18:23.6136981+01:00  [INF] Now listening on: "http://localhost:5000" (d826f4b8)
2019-12-20T13:18:23.6171667+01:00  [INF] Now listening on: "https://localhost:5001" (d826f4b8)
2019-12-20T13:18:23.6173111+01:00  [INF] Application started. Press Ctrl+C to shut down. (dcaefe54)
2019-12-20T13:18:23.6173402+01:00  [INF] Hosting environment: "Production" (c3307c92)
2019-12-20T13:18:23.6173576+01:00  [INF] Content root path: "c:\Users\usuario\source\repos\gfi_concepttest_crud1" (b5d60022)
2019-12-20T13:18:25.2950515+01:00  [INF] Application is shutting down... (90f52c38)
2019-12-20T13:25:47.6818813+01:00  [INF] Now listening on: "http://localhost:5000" (d826f4b8)
2019-12-20T13:25:47.6853365+01:00  [INF] Now listening on: "https://localhost:5001" (d826f4b8)
2019-12-20T13:25:47.6854752+01:00  [INF] Application started. Press Ctrl+C to shut down. (dcaefe54)
2019-12-20T13:25:47.6854995+01:00  [INF] Hosting environment: "Production" (c3307c92)
2019-12-20T13:25:47.6855244+01:00  [INF] Content root path: "c:\Users\usuario\source\repos\gfi_concepttest_crud1" (b5d60022)
2019-12-20T13:25:55.3597213+01:00  [INF] Application is shutting down... (90f52c38)
2019-12-20T13:27:05.6574626+01:00  [INF] Now listening on: "http://localhost:5000" (d826f4b8)
2019-12-20T13:27:05.6609519+01:00  [INF] Now listening on: "https://localhost:5001" (d826f4b8)
2019-12-20T13:27:05.6610911+01:00  [INF] Application started. Press Ctrl+C to shut down. (dcaefe54)
2019-12-20T13:27:05.6611155+01:00  [INF] Hosting environment: "Production" (c3307c92)
2019-12-20T13:27:05.6611426+01:00  [INF] Content root path: "c:\Users\usuario\source\repos\gfi_concepttest_crud1" (b5d60022)
2019-12-20T13:29:33.0563293+01:00  [INF] Application is shutting down... (90f52c38)
2019-12-20T13:29:37.9849287+01:00  [INF] Now listening on: "http://localhost:5000" (d826f4b8)
2019-12-20T13:29:37.9883947+01:00  [INF] Now listening on: "https://localhost:5001" (d826f4b8)
2019-12-20T13:29:37.9885408+01:00  [INF] Application started. Press Ctrl+C to shut down. (dcaefe54)
2019-12-20T13:29:37.9885645+01:00  [INF] Hosting environment: "Production" (c3307c92)
2019-12-20T13:29:37.9885820+01:00  [INF] Content root path: "c:\Users\usuario\source\repos\gfi_concepttest_crud1" (b5d60022)
2019-12-20T13:29:43.1170594+01:00  [INF] Application is shutting down... (90f52c38)
2019-12-20T13:30:05.7219028+01:00  [INF] Now listening on: "http://localhost:5000" (d826f4b8)
2019-12-20T13:30:05.7254538+01:00  [INF] Now listening on: "https://localhost:5001" (d826f4b8)
2019-12-20T13:30:05.7255950+01:00  [INF] Application started. Press Ctrl+C to shut down. (dcaefe54)
2019-12-20T13:30:05.7256263+01:00  [INF] Hosting environment: "Production" (c3307c92)
2019-12-20T13:30:05.7256447+01:00  [INF] Content root path: "c:\Users\usuario\source\repos\gfi_concepttest_crud1" (b5d60022)
2019-12-20T13:30:07.2151995+01:00  [INF] Application is shutting down... (90f52c38)
2019-12-20T13:31:36.6393537+01:00  [INF] Now listening on: "http://localhost:5000" (d826f4b8)
2019-12-20T13:31:36.6428333+01:00  [INF] Now listening on: "https://localhost:5001" (d826f4b8)
2019-12-20T13:31:36.6429788+01:00  [INF] Application started. Press Ctrl+C to shut down. (dcaefe54)
2019-12-20T13:31:36.6430076+01:00  [INF] Hosting environment: "Production" (c3307c92)
2019-12-20T13:31:36.6430251+01:00  [INF] Content root path: "c:\Users\usuario\source\repos\gfi_concepttest_crud1" (b5d60022)
2019-12-20T13:31:56.1254945+01:00 0HLS592AE1NA1:00000001 [INF] Request starting HTTP/2 GET https://localhost:5001/api/Authors   (ca22a1cb)
2019-12-20T13:31:56.1493949+01:00 0HLS592AE1NA1:00000001 [INF] Executing endpoint '"Gfi_ConceptTest_CRUD1.Controllers.AuthorsController.Get (Gfi_ConceptTest_CRUD1)"' (500cc934)
2019-12-20T13:31:56.2029046+01:00 0HLS592AE1NA1:00000001 [INF] Route matched with "{action = \"Get\", controller = \"Authors\"}". Executing controller action with signature "System.Threading.Tasks.Task`1[Microsoft.AspNetCore.Mvc.ActionResult`1[System.Collections.Generic.IEnumerable`1[Gfi_ConceptTest_CRUD1.Models.AuthorDTO]]] Get()" on controller "Gfi_ConceptTest_CRUD1.Controllers.AuthorsController" ("Gfi_ConceptTest_CRUD1"). (122b2fdf)
2019-12-20T13:31:56.3506555+01:00 0HLS592AE1NA1:00000001 [INF] Executed action "Gfi_ConceptTest_CRUD1.Controllers.AuthorsController.Get (Gfi_ConceptTest_CRUD1)" in 131.6016ms (afa2e885)
2019-12-20T13:31:56.3512735+01:00 0HLS592AE1NA1:00000001 [INF] Executed endpoint '"Gfi_ConceptTest_CRUD1.Controllers.AuthorsController.Get (Gfi_ConceptTest_CRUD1)"' (99874f2b)
2019-12-20T13:31:56.4068948+01:00 0HLS592AE1NA1:00000001 [ERR] Connection id ""0HLS592AE1NA1"", Request id ""0HLS592AE1NA1:00000001"": An unhandled exception was thrown by the application. (560e7d32)
System.ArgumentNullException: Value cannot be null. (Parameter 'path')
   at System.IO.File.ReadAllLinesAsync(String path, Encoding encoding, CancellationToken cancellationToken)
   at System.IO.File.ReadAllLinesAsync(String path, CancellationToken cancellationToken)
   at Gfi_ConceptTest_CRUD1.Repository.AuthorRepository.GetAuthors() in C:\Users\usuario\source\repos\Gfi_ConceptTest_CRUD1\Gfi_ConceptTest_CRUD1\Repository\AuthorRepository.cs:line 44
   at Gfi_ConceptTest_CRUD1.Controllers.AuthorsController.Get() in C:\Users\usuario\source\repos\Gfi_ConceptTest_CRUD1\Gfi_ConceptTest_CRUD1\Controllers\AuthorsController.cs:line 34
   at lambda_method(Closure , Object )
   at Microsoft.Extensions.Internal.ObjectMethodExecutorAwaitable.Awaiter.GetResult()
   at Microsoft.AspNetCore.Mvc.Infrastructure.ActionMethodExecutor.AwaitableObjectResultExecutor.Execute(IActionResultTypeMapper mapper, ObjectMethodExecutor executor, Object controller, Object[] arguments)
   at Microsoft.AspNetCore.Mvc.Infrastructure.ControllerActionInvoker.<InvokeActionMethodAsync>g__Awaited|12_0(ControllerActionInvoker invoker, ValueTask`1 actionResultValueTask)
   at Microsoft.AspNetCore.Mvc.Infrastructure.ControllerActionInvoker.<InvokeNextActionFilterAsync>g__Awaited|10_0(ControllerActionInvoker invoker, Task lastTask, State next, Scope scope, Object state, Boolean isCompleted)
   at Microsoft.AspNetCore.Mvc.Infrastructure.ControllerActionInvoker.Rethrow(ActionExecutedContextSealed context)
   at Microsoft.AspNetCore.Mvc.Infrastructure.ControllerActionInvoker.Next(State& next, Scope& scope, Object& state, Boolean& isCompleted)
   at Microsoft.AspNetCore.Mvc.Infrastructure.ControllerActionInvoker.InvokeInnerFilterAsync()
--- End of stack trace from previous location where exception was thrown ---
   at Microsoft.AspNetCore.Mvc.Infrastructure.ResourceInvoker.<InvokeFilterPipelineAsync>g__Awaited|19_0(ResourceInvoker invoker, Task lastTask, State next, Scope scope, Object state, Boolean isCompleted)
   at Microsoft.AspNetCore.Mvc.Infrastructure.ResourceInvoker.<InvokeAsync>g__Logged|17_1(ResourceInvoker invoker)
   at Microsoft.AspNetCore.Routing.EndpointMiddleware.<Invoke>g__AwaitRequestTask|6_0(Endpoint endpoint, Task requestTask, ILogger logger)
   at Microsoft.AspNetCore.Authorization.AuthorizationMiddleware.Invoke(HttpContext context)
   at Microsoft.AspNetCore.Server.Kestrel.Core.Internal.Http.HttpProtocol.ProcessRequests[TContext](IHttpApplication`1 application)
2019-12-20T13:31:56.4111869+01:00 0HLS592AE1NA1:00000001 [INF] Request finished in 288.8888ms 500  (791a596a)
2019-12-20T13:32:11.8348243+01:00  [INF] Application is shutting down... (90f52c38)
2019-12-20T13:32:23.3500931+01:00  [INF] Now listening on: "http://localhost:5000" (d826f4b8)
2019-12-20T13:32:23.3536976+01:00  [INF] Now listening on: "https://localhost:5001" (d826f4b8)
2019-12-20T13:32:23.3538540+01:00  [INF] Application started. Press Ctrl+C to shut down. (dcaefe54)
2019-12-20T13:32:23.3538770+01:00  [INF] Hosting environment: "Production" (c3307c92)
2019-12-20T13:32:23.3539005+01:00  [INF] Content root path: "c:\Users\usuario\source\repos\gfi_concepttest_crud1" (b5d60022)
2019-12-20T13:32:44.6141192+01:00 0HLS592RAV6HQ:00000001 [INF] Request starting HTTP/2 GET https://localhost:5001/api/Authors   (ca22a1cb)
2019-12-20T13:32:44.6372392+01:00 0HLS592RAV6HQ:00000001 [INF] Executing endpoint '"Gfi_ConceptTest_CRUD1.Controllers.AuthorsController.Get (Gfi_ConceptTest_CRUD1)"' (500cc934)
2019-12-20T13:32:44.6758519+01:00 0HLS592RAV6HQ:00000001 [INF] Route matched with "{action = \"Get\", controller = \"Authors\"}". Executing controller action with signature "System.Threading.Tasks.Task`1[Microsoft.AspNetCore.Mvc.ActionResult`1[System.Collections.Generic.IEnumerable`1[Gfi_ConceptTest_CRUD1.Models.AuthorDTO]]] Get()" on controller "Gfi_ConceptTest_CRUD1.Controllers.AuthorsController" ("Gfi_ConceptTest_CRUD1"). (122b2fdf)
2019-12-20T13:32:44.8172990+01:00 0HLS592RAV6HQ:00000001 [INF] Executed action "Gfi_ConceptTest_CRUD1.Controllers.AuthorsController.Get (Gfi_ConceptTest_CRUD1)" in 135.5472ms (afa2e885)
2019-12-20T13:32:44.8181713+01:00 0HLS592RAV6HQ:00000001 [INF] Executed endpoint '"Gfi_ConceptTest_CRUD1.Controllers.AuthorsController.Get (Gfi_ConceptTest_CRUD1)"' (99874f2b)
2019-12-20T13:32:44.8478387+01:00 0HLS592RAV6HQ:00000001 [ERR] Connection id ""0HLS592RAV6HQ"", Request id ""0HLS592RAV6HQ:00000001"": An unhandled exception was thrown by the application. (560e7d32)
System.ArgumentNullException: Value cannot be null. (Parameter 'path')
   at System.IO.File.ReadAllLinesAsync(String path, Encoding encoding, CancellationToken cancellationToken)
   at System.IO.File.ReadAllLinesAsync(String path, CancellationToken cancellationToken)
   at Gfi_ConceptTest_CRUD1.Repository.AuthorRepository.GetAuthors() in C:\Users\usuario\source\repos\Gfi_ConceptTest_CRUD1\Gfi_ConceptTest_CRUD1\Repository\AuthorRepository.cs:line 44
   at Gfi_ConceptTest_CRUD1.Controllers.AuthorsController.Get() in C:\Users\usuario\source\repos\Gfi_ConceptTest_CRUD1\Gfi_ConceptTest_CRUD1\Controllers\AuthorsController.cs:line 34
   at lambda_method(Closure , Object )
   at Microsoft.Extensions.Internal.ObjectMethodExecutorAwaitable.Awaiter.GetResult()
   at Microsoft.AspNetCore.Mvc.Infrastructure.ActionMethodExecutor.AwaitableObjectResultExecutor.Execute(IActionResultTypeMapper mapper, ObjectMethodExecutor executor, Object controller, Object[] arguments)
   at Microsoft.AspNetCore.Mvc.Infrastructure.ControllerActionInvoker.<InvokeActionMethodAsync>g__Awaited|12_0(ControllerActionInvoker invoker, ValueTask`1 actionResultValueTask)
   at Microsoft.AspNetCore.Mvc.Infrastructure.ControllerActionInvoker.<InvokeNextActionFilterAsync>g__Awaited|10_0(ControllerActionInvoker invoker, Task lastTask, State next, Scope scope, Object state, Boolean isCompleted)
   at Microsoft.AspNetCore.Mvc.Infrastructure.ControllerActionInvoker.Rethrow(ActionExecutedContextSealed context)
   at Microsoft.AspNetCore.Mvc.Infrastructure.ControllerActionInvoker.Next(State& next, Scope& scope, Object& state, Boolean& isCompleted)
   at Microsoft.AspNetCore.Mvc.Infrastructure.ControllerActionInvoker.InvokeInnerFilterAsync()
--- End of stack trace from previous location where exception was thrown ---
   at Microsoft.AspNetCore.Mvc.Infrastructure.ResourceInvoker.<InvokeFilterPipelineAsync>g__Awaited|19_0(ResourceInvoker invoker, Task lastTask, State next, Scope scope, Object state, Boolean isCompleted)
   at Microsoft.AspNetCore.Mvc.Infrastructure.ResourceInvoker.<InvokeAsync>g__Logged|17_1(ResourceInvoker invoker)
   at Microsoft.AspNetCore.Routing.EndpointMiddleware.<Invoke>g__AwaitRequestTask|6_0(Endpoint endpoint, Task requestTask, ILogger logger)
   at Microsoft.AspNetCore.Authorization.AuthorizationMiddleware.Invoke(HttpContext context)
   at Microsoft.AspNetCore.Server.Kestrel.Core.Internal.Http.HttpProtocol.ProcessRequests[TContext](IHttpApplication`1 application)
2019-12-20T13:32:44.8508887+01:00 0HLS592RAV6HQ:00000001 [INF] Request finished in 239.2086ms 500  (791a596a)
2019-12-20T13:33:21.5847283+01:00  [INF] Application is shutting down... (90f52c38)
2019-12-20T13:34:16.2284609+01:00  [INF] Now listening on: "http://localhost:5000" (d826f4b8)
2019-12-20T13:34:16.2319351+01:00  [INF] Now listening on: "https://localhost:5001" (d826f4b8)
2019-12-20T13:34:16.2320833+01:00  [INF] Application started. Press Ctrl+C to shut down. (dcaefe54)
2019-12-20T13:34:16.2321122+01:00  [INF] Hosting environment: "Production" (c3307c92)
2019-12-20T13:34:16.2321308+01:00  [INF] Content root path: "c:\Users\usuario\source\repos\gfi_concepttest_crud1" (b5d60022)
2019-12-20T13:34:19.7748680+01:00  [INF] Application is shutting down... (90f52c38)
2019-12-20T13:35:23.8146156+01:00  [INF] Now listening on: "http://localhost:5000" (d826f4b8)
2019-12-20T13:35:23.8181584+01:00  [INF] Now listening on: "https://localhost:5001" (d826f4b8)
2019-12-20T13:35:23.8183108+01:00  [INF] Application started. Press Ctrl+C to shut down. (dcaefe54)
2019-12-20T13:35:23.8183516+01:00  [INF] Hosting environment: "Production" (c3307c92)
2019-12-20T13:35:23.8183697+01:00  [INF] Content root path: "c:\Users\usuario\source\repos\gfi_concepttest_crud1" (b5d60022)
2019-12-20T13:35:29.5805386+01:00  [INF] Application is shutting down... (90f52c38)
2019-12-20T13:35:50.7443673+01:00  [INF] Now listening on: "http://localhost:5000" (d826f4b8)
2019-12-20T13:35:50.7478890+01:00  [INF] Now listening on: "https://localhost:5001" (d826f4b8)
2019-12-20T13:35:50.7480545+01:00  [INF] Application started. Press Ctrl+C to shut down. (dcaefe54)
2019-12-20T13:35:50.7480863+01:00  [INF] Hosting environment: "Production" (c3307c92)
2019-12-20T13:35:50.7481103+01:00  [INF] Content root path: "c:\Users\usuario\source\repos\gfi_concepttest_crud1" (b5d60022)
2019-12-20T13:39:15.4050039+01:00  [INF] Application is shutting down... (90f52c38)
2019-12-20T13:39:33.0010189+01:00  [INF] Now listening on: "http://localhost:5000" (d826f4b8)
2019-12-20T13:39:33.0044574+01:00  [INF] Now listening on: "https://localhost:5001" (d826f4b8)
2019-12-20T13:39:33.0045998+01:00  [INF] Application started. Press Ctrl+C to shut down. (dcaefe54)
2019-12-20T13:39:33.0046222+01:00  [INF] Hosting environment: "Production" (c3307c92)
2019-12-20T13:39:33.0046465+01:00  [INF] Content root path: "c:\Users\usuario\source\repos\gfi_concepttest_crud1" (b5d60022)
2019-12-20T13:39:42.7630620+01:00 0HLS596NUNOUT:00000001 [INF] Request starting HTTP/2 GET https://localhost:5001/api/Authors   (ca22a1cb)
2019-12-20T13:39:42.7861377+01:00 0HLS596NUNOUT:00000001 [INF] Executing endpoint '"Gfi_ConceptTest_CRUD1.Controllers.AuthorsController.Get (Gfi_ConceptTest_CRUD1)"' (500cc934)
2019-12-20T13:39:42.8251524+01:00 0HLS596NUNOUT:00000001 [INF] Route matched with "{action = \"Get\", controller = \"Authors\"}". Executing controller action with signature "System.Threading.Tasks.Task`1[Microsoft.AspNetCore.Mvc.ActionResult`1[System.Collections.Generic.IEnumerable`1[Gfi_ConceptTest_CRUD1.Models.AuthorDTO]]] Get()" on controller "Gfi_ConceptTest_CRUD1.Controllers.AuthorsController" ("Gfi_ConceptTest_CRUD1"). (122b2fdf)
2019-12-20T13:39:42.9736367+01:00 0HLS596NUNOUT:00000001 [INF] Executed action "Gfi_ConceptTest_CRUD1.Controllers.AuthorsController.Get (Gfi_ConceptTest_CRUD1)" in 142.1883ms (afa2e885)
2019-12-20T13:39:42.9745542+01:00 0HLS596NUNOUT:00000001 [INF] Executed endpoint '"Gfi_ConceptTest_CRUD1.Controllers.AuthorsController.Get (Gfi_ConceptTest_CRUD1)"' (99874f2b)
2019-12-20T13:39:43.0040643+01:00 0HLS596NUNOUT:00000001 [ERR] Connection id ""0HLS596NUNOUT"", Request id ""0HLS596NUNOUT:00000001"": An unhandled exception was thrown by the application. (560e7d32)
System.ArgumentNullException: Value cannot be null. (Parameter 'path')
   at System.IO.File.ReadAllLinesAsync(String path, Encoding encoding, CancellationToken cancellationToken)
   at System.IO.File.ReadAllLinesAsync(String path, CancellationToken cancellationToken)
   at Gfi_ConceptTest_CRUD1.Repository.AuthorRepository.GetAuthors() in C:\Users\usuario\source\repos\Gfi_ConceptTest_CRUD1\Gfi_ConceptTest_CRUD1\Repository\AuthorRepository.cs:line 44
   at Gfi_ConceptTest_CRUD1.Controllers.AuthorsController.Get() in C:\Users\usuario\source\repos\Gfi_ConceptTest_CRUD1\Gfi_ConceptTest_CRUD1\Controllers\AuthorsController.cs:line 34
   at lambda_method(Closure , Object )
   at Microsoft.Extensions.Internal.ObjectMethodExecutorAwaitable.Awaiter.GetResult()
   at Microsoft.AspNetCore.Mvc.Infrastructure.ActionMethodExecutor.AwaitableObjectResultExecutor.Execute(IActionResultTypeMapper mapper, ObjectMethodExecutor executor, Object controller, Object[] arguments)
   at Microsoft.AspNetCore.Mvc.Infrastructure.ControllerActionInvoker.<InvokeActionMethodAsync>g__Awaited|12_0(ControllerActionInvoker invoker, ValueTask`1 actionResultValueTask)
   at Microsoft.AspNetCore.Mvc.Infrastructure.ControllerActionInvoker.<InvokeNextActionFilterAsync>g__Awaited|10_0(ControllerActionInvoker invoker, Task lastTask, State next, Scope scope, Object state, Boolean isCompleted)
   at Microsoft.AspNetCore.Mvc.Infrastructure.ControllerActionInvoker.Rethrow(ActionExecutedContextSealed context)
   at Microsoft.AspNetCore.Mvc.Infrastructure.ControllerActionInvoker.Next(State& next, Scope& scope, Object& state, Boolean& isCompleted)
   at Microsoft.AspNetCore.Mvc.Infrastructure.ControllerActionInvoker.InvokeInnerFilterAsync()
--- End of stack trace from previous location where exception was thrown ---
   at Microsoft.AspNetCore.Mvc.Infrastructure.ResourceInvoker.<InvokeFilterPipelineAsync>g__Awaited|19_0(ResourceInvoker invoker, Task lastTask, State next, Scope scope, Object state, Boolean isCompleted)
   at Microsoft.AspNetCore.Mvc.Infrastructure.ResourceInvoker.<InvokeAsync>g__Logged|17_1(ResourceInvoker invoker)
   at Microsoft.AspNetCore.Routing.EndpointMiddleware.<Invoke>g__AwaitRequestTask|6_0(Endpoint endpoint, Task requestTask, ILogger logger)
   at Microsoft.AspNetCore.Authorization.AuthorizationMiddleware.Invoke(HttpContext context)
   at Microsoft.AspNetCore.Server.Kestrel.Core.Internal.Http.HttpProtocol.ProcessRequests[TContext](IHttpApplication`1 application)
2019-12-20T13:39:43.0086614+01:00 0HLS596NUNOUT:00000001 [INF] Request finished in 247.9253ms 500  (791a596a)
2019-12-20T13:47:16.4235182+01:00  [INF] Application is shutting down... (90f52c38)
2019-12-20T13:47:33.6798890+01:00  [INF] Now listening on: "http://localhost:5000" (d826f4b8)
2019-12-20T13:47:33.6834704+01:00  [INF] Now listening on: "https://localhost:5001" (d826f4b8)
2019-12-20T13:47:33.6836434+01:00  [INF] Application started. Press Ctrl+C to shut down. (dcaefe54)
2019-12-20T13:47:33.6836668+01:00  [INF] Hosting environment: "Production" (c3307c92)
2019-12-20T13:47:33.6836853+01:00  [INF] Content root path: "c:\Users\usuario\source\repos\gfi_concepttest_crud1" (b5d60022)
2019-12-20T13:47:45.0931228+01:00 0HLS59B7MJEU4:00000001 [INF] Request starting HTTP/2 GET https://localhost:5001/api/Authors   (ca22a1cb)
2019-12-20T13:47:45.1159803+01:00 0HLS59B7MJEU4:00000001 [INF] Executing endpoint '"Gfi_ConceptTest_CRUD1.Controllers.AuthorsController.Get (Gfi_ConceptTest_CRUD1)"' (500cc934)
2019-12-20T13:47:45.1538215+01:00 0HLS59B7MJEU4:00000001 [INF] Route matched with "{action = \"Get\", controller = \"Authors\"}". Executing controller action with signature "System.Threading.Tasks.Task`1[Microsoft.AspNetCore.Mvc.ActionResult`1[System.Collections.Generic.IEnumerable`1[Gfi_ConceptTest_CRUD1.Models.AuthorDTO]]] Get()" on controller "Gfi_ConceptTest_CRUD1.Controllers.AuthorsController" ("Gfi_ConceptTest_CRUD1"). (122b2fdf)
2019-12-20T13:47:45.2917102+01:00 0HLS59B7MJEU4:00000001 [INF] Executed action "Gfi_ConceptTest_CRUD1.Controllers.AuthorsController.Get (Gfi_ConceptTest_CRUD1)" in 132.0297ms (afa2e885)
2019-12-20T13:47:45.2925903+01:00 0HLS59B7MJEU4:00000001 [INF] Executed endpoint '"Gfi_ConceptTest_CRUD1.Controllers.AuthorsController.Get (Gfi_ConceptTest_CRUD1)"' (99874f2b)
2019-12-20T13:47:45.3226133+01:00 0HLS59B7MJEU4:00000001 [ERR] Connection id ""0HLS59B7MJEU4"", Request id ""0HLS59B7MJEU4:00000001"": An unhandled exception was thrown by the application. (560e7d32)
System.ArgumentNullException: Value cannot be null. (Parameter 'path')
   at System.IO.File.ReadAllLinesAsync(String path, Encoding encoding, CancellationToken cancellationToken)
   at System.IO.File.ReadAllLinesAsync(String path, CancellationToken cancellationToken)
   at Gfi_ConceptTest_CRUD1.Repository.AuthorRepository.GetAuthors() in C:\Users\usuario\source\repos\Gfi_ConceptTest_CRUD1\Gfi_ConceptTest_CRUD1\Repository\AuthorRepository.cs:line 44
   at Gfi_ConceptTest_CRUD1.Controllers.AuthorsController.Get() in C:\Users\usuario\source\repos\Gfi_ConceptTest_CRUD1\Gfi_ConceptTest_CRUD1\Controllers\AuthorsController.cs:line 34
   at lambda_method(Closure , Object )
   at Microsoft.Extensions.Internal.ObjectMethodExecutorAwaitable.Awaiter.GetResult()
   at Microsoft.AspNetCore.Mvc.Infrastructure.ActionMethodExecutor.AwaitableObjectResultExecutor.Execute(IActionResultTypeMapper mapper, ObjectMethodExecutor executor, Object controller, Object[] arguments)
   at Microsoft.AspNetCore.Mvc.Infrastructure.ControllerActionInvoker.<InvokeActionMethodAsync>g__Awaited|12_0(ControllerActionInvoker invoker, ValueTask`1 actionResultValueTask)
   at Microsoft.AspNetCore.Mvc.Infrastructure.ControllerActionInvoker.<InvokeNextActionFilterAsync>g__Awaited|10_0(ControllerActionInvoker invoker, Task lastTask, State next, Scope scope, Object state, Boolean isCompleted)
   at Microsoft.AspNetCore.Mvc.Infrastructure.ControllerActionInvoker.Rethrow(ActionExecutedContextSealed context)
   at Microsoft.AspNetCore.Mvc.Infrastructure.ControllerActionInvoker.Next(State& next, Scope& scope, Object& state, Boolean& isCompleted)
   at Microsoft.AspNetCore.Mvc.Infrastructure.ControllerActionInvoker.InvokeInnerFilterAsync()
--- End of stack trace from previous location where exception was thrown ---
   at Microsoft.AspNetCore.Mvc.Infrastructure.ResourceInvoker.<InvokeFilterPipelineAsync>g__Awaited|19_0(ResourceInvoker invoker, Task lastTask, State next, Scope scope, Object state, Boolean isCompleted)
   at Microsoft.AspNetCore.Mvc.Infrastructure.ResourceInvoker.<InvokeAsync>g__Logged|17_1(ResourceInvoker invoker)
   at Microsoft.AspNetCore.Routing.EndpointMiddleware.<Invoke>g__AwaitRequestTask|6_0(Endpoint endpoint, Task requestTask, ILogger logger)
   at Microsoft.AspNetCore.Authorization.AuthorizationMiddleware.Invoke(HttpContext context)
   at Microsoft.AspNetCore.Server.Kestrel.Core.Internal.Http.HttpProtocol.ProcessRequests[TContext](IHttpApplication`1 application)
2019-12-20T13:47:45.3263482+01:00 0HLS59B7MJEU4:00000001 [INF] Request finished in 235.6814ms 500  (791a596a)
2019-12-20T13:48:04.0329370+01:00  [INF] Application is shutting down... (90f52c38)
2019-12-20T14:10:50.8484866+01:00  [INF] Now listening on: "http://localhost:5000" (d826f4b8)
2019-12-20T14:10:50.8520315+01:00  [INF] Now listening on: "https://localhost:5001" (d826f4b8)
2019-12-20T14:10:50.8521982+01:00  [INF] Application started. Press Ctrl+C to shut down. (dcaefe54)
2019-12-20T14:10:50.8522225+01:00  [INF] Hosting environment: "Production" (c3307c92)
2019-12-20T14:10:50.8522471+01:00  [INF] Content root path: "c:\Users\usuario\source\repos\gfi_concepttest_crud1" (b5d60022)
2019-12-20T14:10:57.7419691+01:00 0HLS59O6NTGI0:00000001 [INF] Request starting HTTP/2 GET https://localhost:5001/api/Authors   (ca22a1cb)
2019-12-20T14:10:57.7650493+01:00 0HLS59O6NTGI0:00000001 [INF] Executing endpoint '"Gfi_ConceptTest_CRUD1.Controllers.AuthorsController.Get (Gfi_ConceptTest_CRUD1)"' (500cc934)
2019-12-20T14:10:57.8027945+01:00 0HLS59O6NTGI0:00000001 [INF] Route matched with "{action = \"Get\", controller = \"Authors\"}". Executing controller action with signature "System.Threading.Tasks.Task`1[Microsoft.AspNetCore.Mvc.ActionResult`1[System.Collections.Generic.IEnumerable`1[Gfi_ConceptTest_CRUD1.Models.AuthorDTO]]] Get()" on controller "Gfi_ConceptTest_CRUD1.Controllers.AuthorsController" ("Gfi_ConceptTest_CRUD1"). (122b2fdf)
2019-12-20T14:10:57.9560832+01:00 0HLS59O6NTGI0:00000001 [INF] Executing ObjectResult, writing value of type '"System.Collections.Generic.List`1[[Gfi_ConceptTest_CRUD1.Models.AuthorDTO, Gfi_ConceptTest_CRUD1, Version=1.0.0.0, Culture=neutral, PublicKeyToken=null]]"'. (8a1b66c8)
2019-12-20T14:10:57.9704287+01:00 0HLS59O6NTGI0:00000001 [INF] Executed action "Gfi_ConceptTest_CRUD1.Controllers.AuthorsController.Get (Gfi_ConceptTest_CRUD1)" in 161.1336ms (afa2e885)
2019-12-20T14:10:57.9708584+01:00 0HLS59O6NTGI0:00000001 [INF] Executed endpoint '"Gfi_ConceptTest_CRUD1.Controllers.AuthorsController.Get (Gfi_ConceptTest_CRUD1)"' (99874f2b)
2019-12-20T14:10:57.9724146+01:00 0HLS59O6NTGI0:00000001 [INF] Request finished in 233.3151ms 200 application/json; charset=utf-8 (791a596a)
2019-12-20T14:11:23.8025283+01:00 0HLS59O6NTGI2:00000001 [INF] Request starting HTTP/1.1 POST https://localhost:5001/api/Authors application/json 63 (ca22a1cb)
2019-12-20T14:11:23.8032018+01:00 0HLS59O6NTGI2:00000001 [INF] Executing endpoint '"Gfi_ConceptTest_CRUD1.Controllers.AuthorsController.Post (Gfi_ConceptTest_CRUD1)"' (500cc934)
2019-12-20T14:11:23.8160858+01:00 0HLS59O6NTGI2:00000001 [INF] Route matched with "{action = \"Post\", controller = \"Authors\"}". Executing controller action with signature "System.Threading.Tasks.Task`1[Microsoft.AspNetCore.Mvc.ActionResult] Post(Gfi_ConceptTest_CRUD1.Models.AuthorDTO)" on controller "Gfi_ConceptTest_CRUD1.Controllers.AuthorsController" ("Gfi_ConceptTest_CRUD1"). (122b2fdf)
2019-12-20T14:11:23.8571758+01:00 0HLS59O6NTGI2:00000001 [INF] Executing ObjectResult, writing value of type '"Gfi_ConceptTest_CRUD1.Entities.Author"'. (8a1b66c8)
2019-12-20T14:11:23.9050892+01:00 0HLS59O6NTGI2:00000001 [INF] Executed action "Gfi_ConceptTest_CRUD1.Controllers.AuthorsController.Post (Gfi_ConceptTest_CRUD1)" in 88.7277ms (afa2e885)
2019-12-20T14:11:23.9054329+01:00 0HLS59O6NTGI2:00000001 [INF] Executed endpoint '"Gfi_ConceptTest_CRUD1.Controllers.AuthorsController.Post (Gfi_ConceptTest_CRUD1)"' (99874f2b)
2019-12-20T14:11:23.9060035+01:00 0HLS59O6NTGI2:00000001 [INF] Request finished in 103.6817ms 201 application/json; charset=utf-8 (791a596a)
2019-12-20T14:11:30.2623879+01:00 0HLS59O6NTGI0:00000003 [INF] Request starting HTTP/2 GET https://localhost:5001/api/Authors   (ca22a1cb)
2019-12-20T14:11:30.2631669+01:00 0HLS59O6NTGI0:00000003 [INF] Executing endpoint '"Gfi_ConceptTest_CRUD1.Controllers.AuthorsController.Get (Gfi_ConceptTest_CRUD1)"' (500cc934)
2019-12-20T14:11:30.2642205+01:00 0HLS59O6NTGI0:00000003 [INF] Route matched with "{action = \"Get\", controller = \"Authors\"}". Executing controller action with signature "System.Threading.Tasks.Task`1[Microsoft.AspNetCore.Mvc.ActionResult`1[System.Collections.Generic.IEnumerable`1[Gfi_ConceptTest_CRUD1.Models.AuthorDTO]]] Get()" on controller "Gfi_ConceptTest_CRUD1.Controllers.AuthorsController" ("Gfi_ConceptTest_CRUD1"). (122b2fdf)
2019-12-20T14:11:30.2708164+01:00 0HLS59O6NTGI0:00000003 [INF] Executing ObjectResult, writing value of type '"System.Collections.Generic.List`1[[Gfi_ConceptTest_CRUD1.Models.AuthorDTO, Gfi_ConceptTest_CRUD1, Version=1.0.0.0, Culture=neutral, PublicKeyToken=null]]"'. (8a1b66c8)
2019-12-20T14:11:30.2741269+01:00 0HLS59O6NTGI0:00000003 [INF] Executed action "Gfi_ConceptTest_CRUD1.Controllers.AuthorsController.Get (Gfi_ConceptTest_CRUD1)" in 9.4844ms (afa2e885)
2019-12-20T14:11:30.2742738+01:00 0HLS59O6NTGI0:00000003 [INF] Executed endpoint '"Gfi_ConceptTest_CRUD1.Controllers.AuthorsController.Get (Gfi_ConceptTest_CRUD1)"' (99874f2b)
2019-12-20T14:11:30.2748749+01:00 0HLS59O6NTGI0:00000003 [INF] Request finished in 12.5981ms 200 application/json; charset=utf-8 (791a596a)
2019-12-20T14:13:22.7097560+01:00  [INF] Application is shutting down... (90f52c38)
